Library\Bee\artifacts\mvdfrm\Unity.VisualScripting.Core.ref.dll_0FD4FE2CDCC99BDF.mvfrm
Library\Bee\artifacts\mvdfrm\Unity.VisualScripting.Flow.ref.dll_56E5DE835ED3108E.mvfrm
Library\Bee\artifacts\mvdfrm\UnityEngine.UI.ref.dll_AFC2E85BC2EDBC0B.mvfrm
Library\Bee\artifacts\mvdfrm\Unity.VisualScripting.Antlr3.Runtime.dll_5D14E2AE2ED9E7BA.mvfrm
Library\Bee\artifacts\mvdfrm\UnityEngine.AccessibilityModule.dll_6C6FB78349B68A67.mvfrm
Library\Bee\artifacts\mvdfrm\UnityEngine.AIModule.dll_D9A43ADE80229963.mvfrm
Library\Bee\artifacts\mvdfrm\UnityEngine.AndroidJNIModule.dll_75F62C0A5AA310A1.mvfrm
Library\Bee\artifacts\mvdfrm\UnityEngine.AnimationModule.dll_2670F4247973F74D.mvfrm
Library\Bee\artifacts\mvdfrm\UnityEngine.ARModule.dll_9316FFE1DD3FF82C.mvfrm
Library\Bee\artifacts\mvdfrm\UnityEngine.AssetBundleModule.dll_E3E350B08800AA1B.mvfrm
Library\Bee\artifacts\mvdfrm\UnityEngine.AudioModule.dll_9EC373C994DF3CFF.mvfrm
Library\Bee\artifacts\mvdfrm\UnityEngine.ClothModule.dll_05ABD0C46EFC1BE3.mvfrm
Library\Bee\artifacts\mvdfrm\UnityEngine.CoreModule.dll_82621161AE8BBE1A.mvfrm
Library\Bee\artifacts\mvdfrm\UnityEngine.CrashReportingModule.dll_DD791D24E58925F2.mvfrm
Library\Bee\artifacts\mvdfrm\UnityEngine.DirectorModule.dll_42395DD3A2EBC2B7.mvfrm
Library\Bee\artifacts\mvdfrm\UnityEngine.dll_E8310E1F4758D05B.mvfrm
Library\Bee\artifacts\mvdfrm\UnityEngine.DSPGraphModule.dll_478ABF3D154C93D8.mvfrm
Library\Bee\artifacts\mvdfrm\UnityEngine.GameCenterModule.dll_A043762520E40192.mvfrm
Library\Bee\artifacts\mvdfrm\UnityEngine.GIModule.dll_71E083EC1BD1817D.mvfrm
Library\Bee\artifacts\mvdfrm\UnityEngine.GridModule.dll_5FD32D4FC6E05411.mvfrm
Library\Bee\artifacts\mvdfrm\UnityEngine.HotReloadModule.dll_A7B9B22A54A712CF.mvfrm
Library\Bee\artifacts\mvdfrm\UnityEngine.ImageConversionModule.dll_CF81F37D925B1C7A.mvfrm
Library\Bee\artifacts\mvdfrm\UnityEngine.IMGUIModule.dll_D72313305B10D0E0.mvfrm
Library\Bee\artifacts\mvdfrm\UnityEngine.InputLegacyModule.dll_75286BCF1FF2600C.mvfrm
Library\Bee\artifacts\mvdfrm\UnityEngine.InputModule.dll_05393B7A0B1761A3.mvfrm
Library\Bee\artifacts\mvdfrm\UnityEngine.JSONSerializeModule.dll_CC8740BF48F1EAF1.mvfrm
Library\Bee\artifacts\mvdfrm\UnityEngine.LocalizationModule.dll_0604259EFDA13EE4.mvfrm
Library\Bee\artifacts\mvdfrm\UnityEngine.ParticleSystemModule.dll_308B6671539AB180.mvfrm
Library\Bee\artifacts\mvdfrm\UnityEngine.PerformanceReportingModule.dll_E4D843B14C93ECD9.mvfrm
Library\Bee\artifacts\mvdfrm\UnityEngine.Physics2DModule.dll_7316E4151A70EEE2.mvfrm
Library\Bee\artifacts\mvdfrm\UnityEngine.PhysicsModule.dll_EDB9342B66270DB0.mvfrm
Library\Bee\artifacts\mvdfrm\UnityEngine.ProfilerModule.dll_747F970A3C4549C4.mvfrm
Library\Bee\artifacts\mvdfrm\UnityEngine.RuntimeInitializeOnLoadManagerInitializerModule.dll_8AD9F24AB6AF23AB.mvfrm
Library\Bee\artifacts\mvdfrm\UnityEngine.ScreenCaptureModule.dll_E66EEE445D5E1753.mvfrm
Library\Bee\artifacts\mvdfrm\UnityEngine.SharedInternalsModule.dll_53933253098917CA.mvfrm
Library\Bee\artifacts\mvdfrm\UnityEngine.SpriteMaskModule.dll_896FE8B54253970C.mvfrm
Library\Bee\artifacts\mvdfrm\UnityEngine.SpriteShapeModule.dll_FD447E0B3DA2E225.mvfrm
Library\Bee\artifacts\mvdfrm\UnityEngine.StreamingModule.dll_DB05E174C8FBAE8B.mvfrm
Library\Bee\artifacts\mvdfrm\UnityEngine.SubstanceModule.dll_B7B0F5BE144EAC99.mvfrm
Library\Bee\artifacts\mvdfrm\UnityEngine.SubsystemsModule.dll_F41D4F17109B7F1F.mvfrm
Library\Bee\artifacts\mvdfrm\UnityEngine.TerrainModule.dll_07FFAF9A3BE5569E.mvfrm
Library\Bee\artifacts\mvdfrm\UnityEngine.TerrainPhysicsModule.dll_31060F446CDDAC0D.mvfrm
Library\Bee\artifacts\mvdfrm\UnityEngine.TextCoreFontEngineModule.dll_ACE49658E9C1AA58.mvfrm
Library\Bee\artifacts\mvdfrm\UnityEngine.TextCoreTextEngineModule.dll_F4CCCCCA79456376.mvfrm
Library\Bee\artifacts\mvdfrm\UnityEngine.TextRenderingModule.dll_0FAE604F14959748.mvfrm
Library\Bee\artifacts\mvdfrm\UnityEngine.TilemapModule.dll_A6FC171B53A237A7.mvfrm
Library\Bee\artifacts\mvdfrm\UnityEngine.TLSModule.dll_76A983F80CDE7284.mvfrm
Library\Bee\artifacts\mvdfrm\UnityEngine.UIElementsModule.dll_F85BB07F13C7BB16.mvfrm
Library\Bee\artifacts\mvdfrm\UnityEngine.UIElementsNativeModule.dll_FB8B25FAF4880BAD.mvfrm
Library\Bee\artifacts\mvdfrm\UnityEngine.UIModule.dll_D517D90BDC699F0F.mvfrm
Library\Bee\artifacts\mvdfrm\UnityEngine.UmbraModule.dll_19981FE22205E872.mvfrm
Library\Bee\artifacts\mvdfrm\UnityEngine.UNETModule.dll_1508594AFB9AB393.mvfrm
Library\Bee\artifacts\mvdfrm\UnityEngine.UnityAnalyticsModule.dll_502AD73AFFC2037C.mvfrm
Library\Bee\artifacts\mvdfrm\UnityEngine.UnityConnectModule.dll_357A6A45AF2579D0.mvfrm
Library\Bee\artifacts\mvdfrm\UnityEngine.UnityCurlModule.dll_598D9555E987E93A.mvfrm
Library\Bee\artifacts\mvdfrm\UnityEngine.UnityTestProtocolModule.dll_08F3AC733CF69AA8.mvfrm
Library\Bee\artifacts\mvdfrm\UnityEngine.UnityWebRequestAssetBundleModule.dll_F3F4C9321860634D.mvfrm
Library\Bee\artifacts\mvdfrm\UnityEngine.UnityWebRequestAudioModule.dll_5CD4978FD2FEB771.mvfrm
Library\Bee\artifacts\mvdfrm\UnityEngine.UnityWebRequestModule.dll_E120FB279D4FB6F9.mvfrm
Library\Bee\artifacts\mvdfrm\UnityEngine.UnityWebRequestTextureModule.dll_17761B68760D1566.mvfrm
Library\Bee\artifacts\mvdfrm\UnityEngine.UnityWebRequestWWWModule.dll_BF8F122669051FE2.mvfrm
Library\Bee\artifacts\mvdfrm\UnityEngine.VehiclesModule.dll_B9FC57531D159252.mvfrm
Library\Bee\artifacts\mvdfrm\UnityEngine.VFXModule.dll_F7881C66E34BDBF1.mvfrm
Library\Bee\artifacts\mvdfrm\UnityEngine.VideoModule.dll_C3CCF834577158A4.mvfrm
Library\Bee\artifacts\mvdfrm\UnityEngine.VRModule.dll_27E9FF917E242487.mvfrm
Library\Bee\artifacts\mvdfrm\UnityEngine.WindModule.dll_F8B0EC8A3FC23C83.mvfrm
Library\Bee\artifacts\mvdfrm\UnityEngine.XRModule.dll_5AA8C296075E71E5.mvfrm